/home/coder/Projekte/circuitbreakerdemo/src/main/java/circuitbreaker/client/Client.java
/home/coder/Projekte/circuitbreakerdemo/src/main/java/circuitbreaker/client/slow/SlowClient.java
/home/coder/Projekte/circuitbreakerdemo/src/main/java/circuitbreaker/client/slow/HystrixSlowClient.java
/home/coder/Projekte/circuitbreakerdemo/src/main/java/circuitbreaker/client/slow/HystrixWrapperSlowclient.java
/home/coder/Projekte/circuitbreakerdemo/src/main/java/circuitbreaker/client/Status.java
/home/coder/Projekte/circuitbreakerdemo/src/main/java/circuitbreaker/client/Response.java
/home/coder/Projekte/circuitbreakerdemo/src/main/java/circuitbreaker/client/DefaultClient.java
/home/coder/Projekte/circuitbreakerdemo/src/main/java/circuitbreaker/client/slow/SentinelSlowClient.java
/home/coder/Projekte/circuitbreakerdemo/src/main/java/circuitbreaker/client/slow/Resilience4JSlowClient.java
